{
    "Categories": "Qt;KDE;X-KDE-information;",
    "KPlugin": {
        "Description": "Device Viewer",
        "Description[ar]": "عارض الأجهزة",
        "Description[az]": "Qurğuların siyahısı",
        "Description[ca@valencia]": "Visor de dispositius",
        "Description[ca]": "Visor de dispositius",
        "Description[de]": "Gerätebetrachter",
        "Description[en_GB]": "Device Viewer",
        "Description[es]": "Visor de dispositivos",
        "Description[eu]": "Gailu-erakuslea",
        "Description[fi]": "Laitekatselin",
        "Description[fr]": "Afficheur de périphériques",
        "Description[ia]": "Visor de dispositivo",
        "Description[it]": "Visore di dispositivi",
        "Description[ko]": "장치 뷰어",
        "Description[nl]": "Apparaatweergaveprogramma",
        "Description[nn]": "Einingsvisar",
        "Description[pl]": "Przeglądarka urządzeń",
        "Description[pt]": "Visualizador de Dispositivos",
        "Description[pt_BR]": "Visualizador de dispositivos",
        "Description[ro]": "Vizualizor de dispozitive",
        "Description[ru]": "Список устройств",
        "Description[sk]": "Prehliadač zariadení",
        "Description[sl]": "Pregledovalnik naprav",
        "Description[sv]": "Enhetsvisning",
        "Description[ta]": "சாதன காட்டி",
        "Description[tr]": "Aygıt Görüntüleyici",
        "Description[uk]": "Переглядач пристроїв",
        "Description[vi]": "Trình xem thiết bị",
        "Description[x-test]": "xxDevice Viewerxx",
        "Description[zh_CN]": "设备查看器",
        "Icon": "device-notifier",
        "Name": "Device Viewer",
        "Name[ar]": "عارض الأجهزة",
        "Name[ast]": "Visor de preseos",
        "Name[az]": "Qurğuların siyahısı",
        "Name[bg]": "Преглед на устройства",
        "Name[bs]": "Prikazivač uređaja",
        "Name[ca@valencia]": "Visor de dispositius",
        "Name[ca]": "Visor de dispositius",
        "Name[cs]": "Prohlížeč zařízení",
        "Name[da]": "Enhedsfremviser",
        "Name[de]": "Gerätebetrachter",
        "Name[el]": "Προβολέας συσκευών",
        "Name[en_GB]": "Device Viewer",
        "Name[es]": "Visor de dispositivos",
        "Name[et]": "Seadmete näitaja",
        "Name[eu]": "Gailu-erakuslea",
        "Name[fi]": "Laitekatselin",
        "Name[fr]": "Afficheur de périphériques",
        "Name[ga]": "Amharcán Gléasanna",
        "Name[gl]": "Visor de dispositivos",
        "Name[he]": "מציג ההתקנים",
        "Name[hi]": "औजार प्रदर्शक",
        "Name[hr]": "Preglednik uređaja",
        "Name[hu]": "Eszközmegjelenítő",
        "Name[ia]": "Visor de dispositivo",
        "Name[id]": "Penampil Perangkat",
        "Name[is]": "Tækjaskoðun",
        "Name[it]": "Visore di dispositivi",
        "Name[ja]": "デバイスビューア",
        "Name[kk]": "Құрылғыларды қарау құралы",
        "Name[km]": "កម្មវិធី​មើល​ឧបករណ៍",
        "Name[kn]": "ಸಾಧನ ಪ್ರದರ್ಶಕ",
        "Name[ko]": "장치 뷰어",
        "Name[lt]": "Įrenginių žiūryklė",
        "Name[lv]": "Iekārtu skatītājs",
        "Name[mr]": "साधन प्रदर्शक",
        "Name[nb]": "Enhetsviser",
        "Name[nds]": "Reedschappenkieker",
        "Name[nl]": "Apparaatweergaveprogramma",
        "Name[nn]": "Einingsvisar",
        "Name[pa]": "ਡਿਵਾਈਸ ਦਰਸ਼ਕ",
        "Name[pl]": "Przeglądarka urządzeń",
        "Name[pt]": "Visualizador de Dispositivos",
        "Name[pt_BR]": "Visualizador de dispositivos",
        "Name[ro]": "Vizualizor de dispozitive",
        "Name[ru]": "Список устройств",
        "Name[si]": "මෙවලම් පෙන්වනය",
        "Name[sk]": "Prehliadač zariadení",
        "Name[sl]": "Pregledovalnik naprav",
        "Name[sr@ijekavian]": "Приказивач уређаја",
        "Name[sr@ijekavianlatin]": "Prikazivač uređaja",
        "Name[sr@latin]": "Prikazivač uređaja",
        "Name[sr]": "Приказивач уређаја",
        "Name[sv]": "Enhetsvisning",
        "Name[ta]": "சாதன காட்டி",
        "Name[tg]": "Намоиши дастгоҳҳо",
        "Name[th]": "ตัวแสดงอุปกรณ์",
        "Name[tr]": "Aygıt Görüntüleyici",
        "Name[ug]": "ئۈسكۈنە كۆرگۈ",
        "Name[uk]": "Переглядач пристроїв",
        "Name[vi]": "Trình xem thiết bị",
        "Name[wa]": "Håyneu des éndjins",
        "Name[x-test]": "xxDevice Viewerxx",
        "Name[zh_CN]": "设备查看器",
        "Name[zh_TW]": "裝置檢視器"
    },
    "X-DocPath": "kinfocenter/devinfo.html",
    "X-KDE-KInfoCenter-Category": "device_information",
    "X-KDE-Keywords": "device,devices,disk,drive,processor,cpu",
    "X-KDE-Keywords[ast]": "preséu,preseos,discu,discos,unidá,unidaes,procesador,procesadores,cpu,cpus",
    "X-KDE-Keywords[az]": "device,devices,disk,drive,processor,cpu,qurğu,cihaz,disk,prosessor,mərkəzi prosessor,sürücü",
    "X-KDE-Keywords[ca@valencia]": "dispositiu,dispositius,disc,unitat,processador,cpu",
    "X-KDE-Keywords[ca]": "dispositiu,dispositius,disc,unitat,processador,cpu",
    "X-KDE-Keywords[cs]": "zařízení,disk,jednotka,procesor,cpu",
    "X-KDE-Keywords[da]": "enhed,enheder,disk,drive,processor,cpu",
    "X-KDE-Keywords[de]": "Gerät,Geräte,Festplatte,Laufwerk,Prozessor,CPU",
    "X-KDE-Keywords[el]": "συσκευή,συσκευές,δίσκος,οδηγός,επεξεργαστής,cpu",
    "X-KDE-Keywords[en_GB]": "device,devices,disk,drive,processor,cpu",
    "X-KDE-Keywords[es]": "dispositivo,dispositivos,disco,unidad,procesador,cpu",
    "X-KDE-Keywords[et]": "seade,seadmed,ketas,protsessor,cpu",
    "X-KDE-Keywords[eu]": "gailua,gailuak,diskoa,unitatea,prozesatzailea,puz",
    "X-KDE-Keywords[fi]": "laite,laitteet,levy,asema,suoritin,cpu",
    "X-KDE-Keywords[fr]": "périphérique, périphériques, disque, lecteur, processeur, processeur",
    "X-KDE-Keywords[gl]": "dispositivo,dispositivos,disco,unidade,procesador,cpu",
    "X-KDE-Keywords[hu]": "eszköz,eszközök,lemez,meghajtó,processzor,cpu",
    "X-KDE-Keywords[ia]": "device,devices,disk,drive,processor,cpu",
    "X-KDE-Keywords[id]": "perangkat,device,disk,cakram,prosesor,cpu",
    "X-KDE-Keywords[it]": "dispositivo,dispositivi,disco,lettore,processore,cpu",
    "X-KDE-Keywords[ja]": "デバイス,ディスク,ドライブ,プロセッサ",
    "X-KDE-Keywords[ko]": "device,devices,disk,drive,processor,cpu,장치,디스크,드라이브,프로세서",
    "X-KDE-Keywords[lt]": "įrenginys,irenginys,įtaisas,itaisas,diskas,procesorius,cpu",
    "X-KDE-Keywords[nl]": "apparaat,apparaten,schijf,station,processor,cpu",
    "X-KDE-Keywords[nn]": "eining,einingar,disk,stasjon,prosessor,cpu",
    "X-KDE-Keywords[pa]": "ਡਿਵਾਈਸ,ਯੰਤਰ,ਜੰਤਰ,ਡਿਸਕ,ਡਰਾਇਵ,ਪਰੋਸੈਸਰ,ਪ੍ਰੋਸੈਸਰ,ਸੀਪੀਯੂ",
    "X-KDE-Keywords[pl]": "urządzenie,urządzenia,dysk,napęd,procesor,cpu",
    "X-KDE-Keywords[pt]": "dispositivo,dispositivos,disco,unidade,processador,cpu",
    "X-KDE-Keywords[pt_BR]": "dispositivo,dispositivo,disco,drive,unidade,processador,cpu",
    "X-KDE-Keywords[ro]": "dispozitiv,dispozitive,disc,unitate,procesor,cpu",
    "X-KDE-Keywords[ru]": "device,devices,disk,drive,processor,cpu,устройство,устройства,диск,привод,процессор,цп",
    "X-KDE-Keywords[sk]": "zariadenie,zariadenia,disk,disk,procesor,cpu",
    "X-KDE-Keywords[sl]": "naprava,naprave,disk,pogon,procesor,cpe",
    "X-KDE-Keywords[sv]": "enhet,enheter,disk,processor,cpu",
    "X-KDE-Keywords[uk]": "device,devices,disk,drive,processor,cpu,пристрій,пристрої,диск,флешка,процесор,цпу",
    "X-KDE-Keywords[vi]": "device,devices,disk,drive,processor,cpu,thiết bị,đĩa,ổ,bộ xử lí",
    "X-KDE-Keywords[x-test]": "xxdevicexx,xxdevicesxx,xxdiskxx,xxdrivexx,xxprocessorxx,xxcpuxx",
    "X-KDE-Keywords[zh_CN]": "device,devices,disk,drive,processor,cpu,设备,磁盘,存储,硬盘,驱动器,处理器,中央处理器",
    "X-KDE-Keywords[zh_TW]": "device,devices,disk,drive,processor,cpu,裝置,磁碟,硬碟,磁碟機,硬碟機,裝置,設備,處理器,CPU",
    "X-KDE-Weight": 0
}
